industry,finance,commerce,nourriture,alimentation,tech,startup,beautÉ,santÉ,sport,Éducation,maison,photographie,voyage,mode,immobilier,café,bébé,vert,Éco,animation,services,conseils,mobileapp,livres,magazine,ecommerce,online,construction,handyman,trade,gÉnÉral,modern
keyword,banque,banque,nutrition,nutrition,objet,objet,soin,foot,foot,école,chambre,nature,avion,mode,terrain,lait,pédiatre,éco-,éco-,télévision,service,service,application,livre,livre,site,site,construction,construction,construction,solution,bio-
,groupe,groupe,bio,bio,connécté,connécté,peau,tennis,tennis,scolaire,lit,portrait,train,vêtement,développement,cappuccino,couche,vert,vert,spectacle,tertiaire,tertiaire,téléphone,magazine,magazine,internet,internet,ouvrier,ouvrier,ouvrier,prestation,éco-
,accord,accord,go,go,smart,smart,humide,vif,vif,aide,couverture,visage,porte,model,achat,léger,maternel,écologique,écologique,théâtre,consulting,consulting,cellulaire,revue,revue,e,e,artisan,artisan,artisan,service,eco-
,caisse,caisse,vitamine,vitamine,téléphone,téléphone,traitement,santé,santé,assistance,meuble,focus,vélo,magasin,location,corsé,biberon,social,social,livre,consultant,consultant,portable,index,index,commerce,commerce,menuisier,menuisier,menuisier,design,hashtag
,epargne,epargne,energie,energie,start,start,maquillage,fitness,fitness,étudiant,armoire,plan,pied,ligne,parking,long,berceau,planète,planète,littérature,audit,audit,smartphone,chapitre,chapitre,e-commerce,e-commerce,maçon,maçon,maçon,magasin,air-
,populaire,populaire,régime,régime,technologie,technologie,fond,aqua,aqua,diplôme,dressing,création,marche,courbe,construction,cafetière,bonheur,sauver,sauver,musique,aider,aider,tel,page,page,online,online,charpentier,charpentier,charpentier,boutique,"je suis"
,crédit,crédit,mode,mode,avenir,avenir,teint,protection,protection,réussite,bureau,cadre,valise,textile,matériau,court,"garderie ",sauvetage,sauvetage,concert,aiguiller,aiguiller,télé,tourner,tourner,"en ligne","en ligne",ferronier,ferronier,ferronier,commerce,faux
,mutuel,mutuel,poisson,poisson,futur,futur,paupière,loisir,loisir,objectif,table,cadrage,ticket,coton,dépôt,arôme,nounou,gaz,gaz,artiste,épauler,épauler,phone,"marque page","marque page",paiement,paiement,réparateur,réparateur,réparateur,achat,vrai
,foncier,foncier,eau,eau,design,design,mascara,partage,partage,livre,mirroir,image,billet,synthetique,villa,arabica,naissance,serre,serre,chanteur,swot,swot,android,lire,lire,shopping,shopping,machine,machine,machine,vente,fake
,e-,e-,produit,produit,génération,génération,vernis,compétition,compétition,crayon,lampe,"pellicule ",essence,lin,appartement,toréfaction,apprendre,carbone,carbone,chanteuse,matrice,matrice,ios,lecture,lecture,connecté,connecté,manuel,manuel,manuel,client,drama
,agence,agence,viande,viande,laser,laser,ongle,progression,progression,stylo,poster,exposition,voiture,jean,maison,toréfacteur,surveiller,monoxyde,monoxyde,acteur,décision,décision,tactile,bouquin,bouquin,app,app,usine,usine,usine,prospect,style
,générale,générale,addict,addict,disque,disque,manucure,performance,performance,gomme,papier,diapositive,trajet,pantalon,mas,robusta,"garderie ",vegan,vegan,actrice,aide,aide,écran,bouquiner,bouquiner,application,application,matériel,matériel,matériel,brief,stylé
,consultant,consultant,agro,agro,électrique,électrique,ésthétique,défi,défi,trousse,cahier,album,distance,jupe,cabane,graine,jouer,végétarien,végétarien,figurant,travail,travail,jeu,feuilleter,feuilleter,panier,panier,matériau,matériau,matériau,pitch,tendance
,la,la,nature,nature,télévision,télévision,glamour,challenge,challenge,bureau,salle,art,découverte,jupon,bâtiment,poudre,école,santé,santé,rôle,réunion,réunion,utilitaire,détente,détente,acheter,acheter,brique,brique,brique,descriptif,in
,le,le,service,service,téléphone,téléphone,raffiné,course,course,concentration,bain,peinture,guide,veste,infrastructure,moudre,alphabet,écosystème,écosystème,micro,coopération,coopération,message,loisir,loisir,vendre,vendre,bois,bois,bois,fiche,out
,l',l',export,export,pile,pile,rouge,basket,basket,examen,baignoire,passion,touriste,cuir,architecture,monde,compter,label,label,caméra,co,co,conversation,culture,culture,prix,prix,ferronier,ferronier,ferronier,packaging,info
,les,les,boulangerie,boulangerie,batterie,batterie,lèvre,pétanque,pétanque,dictée,douche,noir,touristique,mannequin,terme,noir,éducation,air,air,show,pilote,pilote,connecter,résumé,résumé,réduction,réduction,métal,métal,métal,"marketing mix",intox
,assure,assure,patisserie,patisserie,écran,écran,crayon,habillement,habillement,culture,lavabo,blanc,périple,style,travaux,excitation,parent,oxygène,oxygène,cabaret,copilote,copilote,connecté,article,article,soldes,soldes,verre,verre,verre,affaire,paf
,france,france,restaurant,restaurant,tactile,tactile,crême,champion,champion,formation,évier,couleur,pélérinage,cravate,chantier,réveil,mineur,pur,pur,scène,"chef ","chef ",connexion,édito,édito,promotion,promotion,outil,outil,outil,bureau,tagué
,cabinet,cabinet,bar,bar,numérique,numérique,fard,peloton,peloton,université,carreaux,support,expedition,accessoire,projet,matin,pédagogie,ozone,ozone,public,projet,projet,appel,rubrique,rubrique,occasion,occasion,marchand,marchand,marchand,agence,seum
,assurance,assurance,bistrot,bistrot,haut,haut,joue,arc,arc,collège,sol,artistique,aventure,bijou,loyer,pause,paternel,arbre,arbre,foule,mission,mission,lien,publicité,publicité,livraison,livraison,entrepreneur,entrepreneur,entrepreneur,réunion,bg
,conseil,conseil,godet,godet,gamme,gamme,ride,olympe,olympe,étude,carrelage,sensible,exploration,tailleur,vente,caféine,poussette,nature,nature,stade,cas,cas,pratique,pub,pub,échange,échange,travail,travail,travail,call,buzz
,expert,expert,caisse,caisse,prestige,prestige,anti,arbitre,arbitre,supérieure,porte,modèle,voyageur,costume,crédit,tasse,poupée,naturel,naturel,sport,étude,étude,mobile,papier,papier,retourner,retourner,physique,physique,physique,conférence,frais
,comptable,comptable,bistrot,bistrot,protéction,protéction,contour,règle,règle,bac,peinture,amateur,odysée,élégance,patrimoine,sucre,gamin,plante,plante,aréna,profil,profil,store,glacé,glacé,électronique,électronique,maison,maison,maison,conf-call,flash
,audit,audit,franquette,franquette,communication,communication,pigment,muscle,muscle,parent,salon,professionnel,déplacement,chic,taux,turc,minot,faune,faune,visuel,"business case","business case",app,photographie,photographie,choix,choix,réparation,réparation,réparation,visio,tech
,auditeur,auditeur,dalle,dalle,projet,projet,jour,poids,poids,social,fauteuil,cinema,passage,détail,"main d'oeuvre",comptoir,gosse,flore,flore,présentateur,timeline,timeline,like,image,image,sécurisé,sécurisé,cassé,cassé,cassé,visioconférence,techno-
,direct,direct,palais,palais,pointe,pointe,nuit,gain,gain,enfant,domicile,vue,agence,broderie,financer,térasse,parrain,équilibre,équilibre,présentatrice,livrable,livrable,j'aime,lecteur,lecteur,commande,commande,réparé,réparé,réparé,agenda,green
,associé,associé,gerbe,gerbe,"capteur ","capteur ",effet,haltère,haltère,politesse,canapé,prise,excursion,dentelle,placement,ami,marraine,respect,respect,intéractif,deadline,deadline,follow,lectrice,lectrice,magasin,magasin,construire,construire,construire,"ordre du jour",participatif
,compagnie,compagnie,blé,blé,machine,machine,permanent,survêtement,survêtement,faculté,cuisine,net,navigation,tulle,commercial,colombie,scolaire,réutilisable,réutilisable,divertissement,gestion,gestion,suivre,rédaction,rédaction,ordinateur,ordinateur,créer,créer,créer,planning,start-up
,expertise,expertise,chaud,chaud,internet,internet,peau,coach,coach,professeur,plaque,rush,séjour,noeud,capital,garçon,amour,recyclage,recyclage,divertir,management,management,partager,rédacteur,rédacteur,smartphone,smartphone,design,design,design,rapport,vibe
,essentiel,essentiel,froid,froid,agronomie,agronomie,produit,alimentation,alimentation,leçon,plan,shooting,noce,papillon,agence,addition,aîné,recycler,recycler,amuser,cabinet,cabinet,partage,écrivain,écrivain,tablette,tablette,plan,plan,plan,dossier,vibrer
,compta,compta,glace,glace,technopole,technopole,savon,régime,régime,scientifique,décoration,pose,souvenir,voile,foncier,glaçon,cadet,pureté,pureté,s'amuser,stratégie,stratégie,interactif,écrivaine,écrivaine,surfer,surfer,architecture,architecture,architecture,négociation,néo-
,gestion,gestion,festival,festival,imprimante,imprimante,parfum,gazon,gazon,maître,villa,mannequin,pèlerin,cashemire,transaction,pression,junior,propre,propre,rire,stratégique,stratégique,"de poche",journaliste,journaliste,net,net,architecte,architecte,architecte,négo,blog
,"& cie","& cie",société,société,processus,processus,déodorant,piste,piste,principal,mas,celebrité,tournée,ciseaux,notaire,bière,benjamin,empreinte,empreinte,vibrer,axe,axe,géo,couverture,couverture,techno',techno',devis,devis,devis,échéancier,gourou
,affaire,affaire,service,service,serveur,serveur,bronzant,hors,hors,conférence,appartement,documenter,arrivée,tailler,luxe,cigale,nouveau-né,respirer,respirer,plaisir,ksf,ksf,géolocalisation,couv',couv',marchand,marchand,"à domicile","à domicile","à domicile",stratégie,entrepreneur
,capital,capital,alim',alim',numérisation,numérisation,égérie,spa,spa,droit,loyer,format,départ,coudre,propriété,frappé,couver,inspirer,inspirer,famille,kpi,kpi,wifi,tranche,tranche,cliquer,cliquer,métier,métier,métier,stratégique,entreprendre
,bourse,bourse,basilic,basilic,filaire,filaire,odeur,éxercice,éxercice,érudit,location,montage,trajet,bobine,rénovation,arôme,"père ",expirer,expirer,ami,assistant,assistant,internet,encre,encre,click,click,apprenti,apprenti,apprenti,collaborateur,local
,management,management,shop,shop,synthetiseur,synthetiseur,émulsion,entraînement,entraînement,connaissance,grenier,pixel,étape,fil,mobilier,terrasse,mère,durable,durable,partager,assistante,assistante,réseau,presse,presse,clique,clique,compagnon,compagnon,compagnon,collègue,glocal
,plan,plan,local,local,binaire,binaire,naturel,remise,remise,savoir,toît,fichier,"randonnée ",aiguille,jardin,convivial,prénom,solidaire,solidaire,partage,facture,facture,swipe,tirage,tirage,mobile,mobile,savoir-faire,savoir-faire,savoir-faire,patron,direct
,société,société,bocal,bocal,robot,robot,nettoyant,cardio,cardio,morale,toîture,selfie,embarquation,"linge ",térasse,caf',lait,développement,développement,participer,e-mail,e-mail,pincer,numéro,numéro,pratique,pratique,marchand,marchand,marchand,n+1,court
,service,service,provence,provence,format,format,repulpeur,forme,forme,cours,charpente,multimedia,mer,kimono,piscine,kawa,croissance,développer,développer,soir,mailing,mailing,cliquer,édition,édition,moderne,moderne,itinérant,itinérant,itinérant,n-1,proximité
,compte,compte,distribution,distribution,empreinte,empreinte,substance,équipement,équipement,document,menage,luminosité,terre,gilet,clôture,moka,petit,durablement,durablement,soirée,dossier,dossier,clique,éditer,éditer,affiliation,affiliation,clientèle,clientèle,clientèle,employé,proxi-
,cour,cour,volaille,volaille,interface,interface,gel,matériel,matériel,préparation,établissement,contraste,air,culotte,viable,percolateur,tétine,animal,animal,compétition,hiérarchie,hiérarchie,digital,lettre,lettre,lien,lien,plombier,plombier,plombier,équipe,prox
,bureau,bureau,bovin,bovin,pratique,pratique,douceur,condition,condition,revision,demeure,netteté,savane,chaussette,terre,perco',adolescent,protection,protection,"mise en scène",prestation,prestation,instinctif,signer,signer,sponsor,sponsor,plomberie,plomberie,plomberie,groupe,circuit
,mondial,mondial,"basse coure","basse coure",programme,programme,perfection,athlète,athlète,campus,foyer,focal,jungle,short,tarmac,filtré,sommeil,sauvegarde,sauvegarde,décor,client,client,menu,écrire,écrire,sponsorisé,sponsorisé,tuyeau,tuyeau,tuyeau,département,trans'
,social,social,ferme,ferme,messagerie,messagerie,splendeur,ballon,ballon,éxercice,domotique,reflex,forêt,luxe,béton,repas,baptême,écologie,écologie,accessoire,qualité,qualité,messagerie,classique,classique,placement,placement,service,service,service,bu,hybride
,macro,macro,sucre,sucre,développer,développer,éclat,volley,volley,pédagogie,couvent,"appareil ",pays,lin,cîment,pouce,parental,terre,terre,applaudir,suivi,suivi,instantané,mensuel,mensuel,produit,produit,boulot,boulot,boulot,compte,hybrider
,micro,micro,sel,sel,ergonomie,ergonomie,idéal,volant,volant,apprentissage,habitat,caricature,océan,burqa,goudron,espresso,apprentissage,soleil,soleil,applaudissement,sav,sav,communiquer,hebdomadaire,hebdomadaire,témoignage,témoignage,job,job,job,finance,easy
,fonds,fonds,poivre,poivre,contrôle,contrôle,fraîcheur,balle,balle,académie,châlet,buste,continent,créateur,outil,americano,frère,eau,eau,communier,après-vente,après-vente,service,journal,journal,virtuel,virtuel,bricolage,bricolage,bricolage,portefeuille,facile
,emprunt,emprunt,épice,épice,notification,notification,"nymphe ",médecin,médecin,administration,logis,effigie,plaine,passion,brique,filtre,soeur,champ,champ,manger,conseiller,conseiller,réglage,journalier,journalier,virtuelle,virtuelle,bricoler,bricoler,bricoler,profit,simple
,projet,projet,oriental,oriental,recherche,recherche,volupté,quotidien,quotidien,certificat,palais,esquisse,rivière,corps,bois,crème,ange,blé,blé,restaurant,conseillère,conseillère,option,tome,tome,réel,réel,bidouille,bidouille,bidouille,perte,simply
,ressource,ressource,indien,indien,connexion,connexion,legerté,hebdomadaire,hebdomadaire,licence,quartier,pallete,ruisseau,sac,charpente,ristretto,manège,récolte,récolte,dîner,téléconseiller,téléconseiller,virtuel,collection,collection,irl,irl,bidouiller,bidouiller,bidouiller,dividende,série
,comité,comité,huile,huile,intranet,intranet,jeunesse,épreuve,épreuve,seminaire,pièce,tableau,fleuve,bermuda,acier,déssert,doudou,énergie,énergie,snack,clientèle,clientèle,aide,note,note,monétisation,monétisation,relier,relier,relier,action,etc
,compte,compte,zest,zest,multimedia,multimedia,bonté,relais,relais,établissement,propriété,toile,route,vogue,verre,"café crème","affection ",énergétique,énergétique,popcorn,caisse,caisse,social,enquête,enquête,service,service,arrange,arrange,arrange,part,retour
,service,service,préssé,préssé,cookie,cookie,cheveu,fédération,fédération,semestre,lotissement,soie,autoroute,valise,plan,gourmand,grandir,économie,économie,canapé,reçu,reçu,communication,roman,roman,article,article,répare,répare,répare,rush,revanche
,politique,politique,citron,citron,internaute,internaute,grandeur,saut,saut,stage,résidence,animal,visite,"pret à porter",création,noir,joie,consommation,consommation,strapontin,taxe,taxe,contact,nouvelle,nouvelle,marchandise,marchandise,état,état,état,groupe,duel
,liquide,liquide,poivron,poivron,utilisateur,utilisateur,majesté,salle,salle,savant,auberge,forêt,maritime,gamme,étage,latté,sourire,bio,bio,critique,tva,tva,répertoire,histoire,histoire,stock,stock,neuf,neuf,neuf,filiale,duo
,monnaie,monnaie,mie,mie,toile,toile,éternel,terrain,terrain,institut,patrimoine,autoportrait,campagne,"haute couture",toît,"au lait",tendre,ogm,ogm,costume,prospection,prospection,"réalité augmentée",bibliothèque,bibliothèque,limité,limité,ancien,ancien,ancien,entreprise,trio
,investissement,investissement,pain,pain,blogueur,blogueur,parure,médaille,médaille,échange,emménagement,stick,montagne,stylisme,tuile,fort,vie,organique,organique,comédie,prospect,prospect,ra,biblio,biblio,avis,avis,fix',fix',fix',boîte,"de rue"
,taux,taux,doré,doré,page,page,excquise,fond,fond,uni,garde,aérien,trousse,sari,carrelage,repas,dodo,frais,frais,drame,prospecter,prospecter,touche,biographie,biographie,comparateur,comparateur,colle,colle,colle,boulot,"de quartier"
,prêt,prêt,écaille,écaille,lien,lien,rayon,endurance,endurance,édu-,jardin,pov,sac,habilllement,grue,collation,nounours,fraîche,fraîche,action,prix,prix,guide,récit,récit,revue,revue,échafaudage,échafaudage,échafaudage,taf,lead
,devise,devise,poivre,poivre,navigation,navigation,charme,concours,concours,math,escalier,visuel,aventure,defiler,appartenance,break,poudre,fraîcheur,fraîcheur,horreur,négociation,négociation,assistance,évasion,évasion,test,test,échelle,échelle,échelle,job,leader
,coupure,coupure,sel,sel,naviguer,naviguer,dignité,virage,virage,mathématique,cave,photo,"épopée ",mode,possession,bureau,nuage,origine,origine,cinéma,négocier,négocier,stockage,genre,genre,crash,crash,outillage,outillage,outillage,p&l,mode
,virement,virement,saignant,saignant,outil,outil,vivre,tribune,tribune,français,baraque,exposé,journal,branché,valeur,mug,agenouiller,aoc,aoc,"grand écran",commission,commission,partage,sujet,sujet,marque,marque,matériel,matériel,matériel,développement,n'go
,transaction,transaction,cuit,cuit,moteur,moteur,tact,lancer,lancer,anglais,habitation,cadreur,routard,robe,locative,thermos,sucette,terroir,terroir,écran,estimation,estimation,tablette,conte,conte,télé',télé',pelle,pelle,pelle,asset,conscience
,guichet,guichet,braisé,braisé,digital,digital,amour,vélo,vélo,lv1,domestique,muse,relais,lingerie,locataire,service,pouce,partage,partage,radio,rapport,rapport,pad,fable,fable,colis,colis,sceau,sceau,sceau,leverage,full
,opération,opération,croustillant,croustillant,réseau,réseau,chic,cycle,cycle,lv2,construction,représentation,péripétie,basique,occupant,speculos,néonatologie,partager,partager,podcast,"tableau de bord","tableau de bord",vidéo,apprendre,apprendre,dépôt,dépôt,pinceau,pinceau,pinceau,synergie,re'
,agio,agio,délice,délice,débit,débit,adoré,circuit,circuit,lv,hutte,"mode ",itinéraire,sape,vacation,"café noisette",pédiatrie,solaire,solaire,roman,start,start,caméra,leçon,leçon,,,peinture,peinture,peinture,optimiser,anti
,immo,immo,bonheur,bonheur,mobile,mobile,vivacité,piste,piste,bio,travaux,zoom,passage,chapeau,bail,noisette,prématuré,éolienne,éolienne,nouvelle,"post mortem","post mortem",connecté,éducation,éducation,,,peintre,peintre,peintre,max,pro
,montant,montant,coin,coin,actualité,actualité,mondain,record,record,biologie,manoir,"premier plan",destination,casquette,hypothèque,macchiato,maternité,pétrole,pétrole,bd,projection,projection,connectivité,école,école,,,marteau,marteau,marteau,min,sous
,coffre,coffre,maghreb,maghreb,fichier,fichier,discret,squat,squat,philosophie,endroit,plan,périple,montre,valorisation,doppia,prémat',charbon,charbon,pop,simulation,simulation,compatible,manga,manga,,,vis,vis,vis,incuber,sur'
,valeur,valeur,tapenade,tapenade,telecom,telecom,séduction,pratique,pratique,philo,loft,"second plan",carnet,bracelet,expertise,mocha,néonat',source,source,populaire,forecast,forecast,divertissement,comics,comics,,,tournevis,tournevis,tournevis,rentable,moderne
,achat,achat,huile,huile,pseudo,pseudo,propreté,randonnée,randonnée,élève,batisse,"arrière plan",bord,collier,agent,gobelet,natalité,renouvelable,renouvelable,mode,calcul,calcul,usage,bulle,bulle,,,tenaille,tenaille,tenaille,rentabilité,moda'
,vente,vente,olive,olive,bande,bande,panache,santé,santé,autorité,vestige,exposition,loisir,bouton,visite,"on the go",sein,responsabilité,responsabilité,magazine,développement,développement,code,bibliographie,bibliographie,,,clou,clou,clou,viable,trend
,stock,stock,cidre,cidre,podcast,podcast,pureté,vitamine,vitamine,"conseil de classe",gîte,lumière,compagnon,chemise,tour,taverne,dent,verte,verte,média,pilotage,pilotage,sécurité,oeuvre,oeuvre,,,clouer,clouer,clouer,viabilité,trendy
,fortune,fortune,eau,eau,transmission,transmission,finesse,jeûne,jeûne,brevet,étage,lampe,balade,t-shirt,témoin,tavernier,talc,humain,humain,internet,budget,budget,sécurisé,auteur,auteur,,,corde,corde,corde,bankable,cool
,hausse,hausse,dessert,dessert,start-up,start-up,"de luxe",yoga,yoga,exam,isolation,flash,prommenade,debardeur,blueprint,serveur,lingette,humanité,humanité,vidéo,profitabilité,profitabilité,assistant,raconter,raconter,,,attacher,attacher,attacher,banque,sillage
,retrait,retrait,plat,plat,diffuse,diffuse,beauté,pilate,pilate,td,abris,caméra,parcourir,chaussure,fondations,serveuse,areuh,salubre,salubre,journal,vendre,vendre,"pay to win",cultivé,cultivé,,,réparer,réparer,réparer,argent,lanceur
,côte,côte,entrée,entrée,reseau,reseau,cosmétique,bien-être,bien-être,dm,cabane,filmer,courir,basket,immo',plateau,lange,salubrité,salubrité,revue,payer,payer,"achat intégré",alphabet,alphabet,,,répar',répar',répar',monnaie,alerte
,euro,euro,paille,paille,social,social,beau,méditation,méditation,devoir,accueil,film,voler,confection,colocation,petit-déjeuner,"table à langer",développement,développement,sortir,devis,devis,tap,e-book,e-book,,,assurance,assurance,assurance,sous,action
,dollar,dollar,verre,verre,net,net,belle,sain,sain,tricher,confort,négatif,hôtel,sandale,"à louer",croissant,"petit pot",développer,développer,bar,agence,agence,développeur,kindle,kindle,,,urgence,urgence,urgence,conseil,actif
,livre,livre,trempé,trempé,mail,mail,attirant,saine,saine,comportement,investissement,"noir et blanc",réservation,talon,"à vendre",tartine,premier,"génération ","génération ",nuit,gérer,gérer,coder,plage,plage,,,peindre,peindre,peindre,audit,
,dividende,dividende,terroir,terroir,adresse,adresse,attirante,mindfulness,mindfulness,lecture,privé,n&b,gîte,escarpin,rafraîchir,marc,landeau,futur,futur,cérémonie,marché,marché,,théatre,théatre,,,poncer,poncer,poncer,auditeur,
,intérêt,intérêt,"gourmand ","gourmand ",ingénieur,ingénieur,maquiller,"pleine conscience","pleine conscience",étudier,publique,sépia,auberge,botte,clef,"french press",pas,avenir,avenir,regarder,,,,script,script,,,couper,couper,couper,cabinet,
,maturité,maturité,jardin,jardin,application,application,contouring,tapis,tapis,étude,logement,hobby,transport,bottine,clé,grain,pleur,qualité,qualité,passe-temps,,,,verbatim,verbatim,,,tailler,tailler,tailler,secteur,
,prêteur,prêteur,papille,papille,nano,nano,fard,tatami,tatami,estrade,urbain,art,aventurier,collant,hectare,bar,nourrice,écoresponsable,écoresponsable,hobby,,,,didascalie,didascalie,,,tondre,tondre,tondre,accompagnement,
,créditeur,créditeur,"sens ","sens ",micro,micro,eye-liner,abdominal,abdominal,tableau,voisin,clic,bâteau,ceinture,are,tabouret,nourrisson,production,production,surfer,,,,éditeur,éditeur,,,nettoyer,nettoyer,nettoyer,syndicat,
,bancaire,bancaire,petit,petit,macro,macro,gloss,abdo,abdo,craie,plante,paravent,culture,eclair,surface,mousse,joue,consommation,consommation,web,,,,chronique,chronique,,,clouer,clouer,clouer,syndic',
,risque,risque,cuisine,cuisine,startup,startup,anti,biceps,biceps,géométrie,terrasse,photo',cuisine,salopette,"mètre carré",boisson,chérubin,consommateur,consommateur,tourisme,,,,chroniqueur,chroniqueur,,,visser,visser,visser,mobilité,
,débit,débit,plaque,plaque,"business angel","business angel",cerne,triceps,triceps,colle,piscine,photomaton,langue,mesure,f1,coup,dormir,consommatrice,consommatrice,voyage,,,,horoscope,horoscope,,,,,,"home office",
,débiteur,débiteur,fromage,fromage,investisseur,investisseur,pore,sprint,sprint,collé,"chaise longue",cabine,anglais,bague,f2,boire,comptine,gaspillage,gaspillage,visite,,,,éssai,éssai,,,,,,télé-travail,
,argent,argent,"portion ","portion ",incubateur,incubateur,ombre,repos,repos,retenue,transat,fond,intérieur,tenue,f3,siroter,allaiter,gâchis,gâchis,guide,,,,romanesque,romanesque,,,,,,"open space",
,économie,économie,cave,cave,incuber,incuber,sourcil,récupération,récupération,punition,cosy,shoot,"été ",neuf,f4,sirop,,déchet,déchet,découverte,,,,fiction,fiction,,,,,,société,
,économique,économique,crêpe,crêpe,crowd-funding,crowd-funding,cil,récup',récup',enfance,casanier,couverture,soleil,uniforme,superficie,,,poubelle,poubelle,"dessin animé",,,,traité,traité,,,,,,soc.,
,avare,avare,gaufre,gaufre,idée,idée,cellulite,endorphine,endorphine,adolescence,"salle de bain",magazine,plage,décontracté,prêt,,,composte,composte,dessin,,,,"book club","book club",,,,,,dirigeant,
,avarice,avarice,amuse,amuse,génération,génération,"peau d'orange",dopamine,dopamine,ado,famille,illustration,safari,sportif,parquet,,,diy,diy,peinture,,,,critique,critique,,,,,,directeur,
,part,part,bouche,bouche,talent,talent,bikini,kayak,kayak,bêtise,maison,style,sable,smoking,fenêtre,,,récupération,récupération,art,,,,série,série,,,,,,manager,
,action,action,dégustation,dégustation,début,début,chirurgie,marin,marin,apprentissage,habiter,genre,galet,style,orientation,,,recycler,recycler,artiste,,,,trilogie,trilogie,,,,,,salaire,
,entreprise,entreprise,simple,simple,start,start,gym,ski,ski,formation,résider,école,farniente,gilet,ascenceur,,,recyclage,recyclage,artistique,,,,paragraphe,paragraphe,,,,,,paie,
,cotation,cotation,comptoir,comptoir,"jeune pousse","jeune pousse",corps,montagne,montagne,principe,résid',nu,sièste,moderne,cour,,,réutiliser,réutiliser,évasion,,,,citation,citation,,,,,,charge,
,spread,spread,vache,vache,jeune,jeune,boost,mer,mer,cpe,appart',"nature morte",repos,classique,voisinage,,,utiliser,utiliser,"show business",,,,périodique,périodique,,,,,,coût,
,bilan,bilan,chevre,chevre,capital,capital,healthy,glisse,glisse,pion,jardinage,nature,monde,satin,habitation,,,engrais,engrais,showbiz,,,,,,,,,,,gain,
,comptabilité,comptabilité,cochon,cochon,"business plan","business plan",alim',surf,surf,surveillant,jardiner,paysage,globe,simple,,,,floral,floral,rock,,,,,,,,,,,déficit,
,comptable,comptable,brebis,brebis,plan,plan,fit,luge,luge,point,jardi',lentille,globe-trotter,noir,,,,cycle,cycle,rap,,,,,,,,,,,bilan,
,créance,créance,agneau,agneau,ambition,ambition,salon,voile,voile,classement,déco,représenter,tour,blanc,,,,local,local,techno,,,,,,,,,,,activité,
,créancier,créancier,mouton,mouton,rêve,rêve,pouponner,sportif,sportif,cancre,immo',interprétation,voyage,élaboré,,,,population,population,festival,,,,,,,,,,,directrices,
,amortissement,amortissement,traiteur,traiteur,création,création,pimpant,sportive,sportive,dissipé,"papier peint",zoomer,voyager,multicolore,,,,valeur,valeur,son,,,,,,,,,,,,
,provision,provision,manger,manger,créer,créer,pimpante,énergétique,énergétique,cm,plafond,dézoomer,découvrir,sobre,,,,tri,tri,lumière,,,,,,,,,,,,
,impôt,impôt,gluten,gluten,innovation,innovation,prim',effort,effort,cp,lounge,distance,histoire,vif,,,,sélectif,sélectif,spot,,,,,,,,,,,,
,taxe,taxe,kéto,kéto,innover,innover,primer,récomfort,récomfort,première,sonnette,espace,historique,éclatant,,,,récup',récup',projecteur,,,,,,,,,,,,
,tva,tva,fast,fast,nouveau,nouveau,lotion,limite,limite,seconde,"pas de porte",angle,monument,brillant,,,,re-,re-,artifice,,,,,,,,,,,,
,échéancier,échéancier,fasting,fasting,nouveauté,nouveauté,hydrater,dépassement,dépassement,terminale,voisin,"prise de vue",patrimoine,coupe,,,,revaloriser,revaloriser,illusion,,,,,,,,,,,,
,remboursement,remboursement,gourmet,gourmet,innovant,innovant,hydro,combat,combat,maternelle,voisinage,oeil,paysage,cardigan,,,,valoriser,valoriser,pyrotechnique,,,,,,,,,,,,
,contraction,contraction,"gourmand ","gourmand ",disruptif,disruptif,pulpe,judo,judo,orientation,quartier,regard,dépayser,créatrice,,,,équi-,équi-,magie,,,,,,,,,,,,
,test,test,gourmande,gourmande,lancement,lancement,filtre,karaté,karaté,programme,colocataire,scène,échange,cache-coeur,,,,équitable,équitable,détente,,,,,,,,,,,,
,courbe,courbe,foody,foody,lancer,lancer,démaquillant,boxe,boxe,enseignant,colocation,réel,trecking,créa',,,,kéto,kéto,guichet,,,,,,,,,,,,
,graph',graph',prep',prep',promouvoir,promouvoir,masque,globule,globule,chercheur,coloc',"oeil de poisson",caravane,"col claudine",,,,fruit,fruit,billet,,,,,,,,,,,,
,graphique,graphique,gras,gras,industrie,industrie,"top coat",anticorps,anticorps,bulletin,acheter,filtre,camping,col,,,,légume,légume,ticket,,,,,,,,,,,,
,gagner,gagner,graisse,graisse,technologie,technologie,influenceur,zinc,zinc,carrière,louer,lux,chameau,défilé,,,,graine,graine,entracte,,,,,,,,,,,,
,perdre,perdre,viande,viande,flexible,flexible,influenceuse,calcium,calcium,cursus,locataire,,nord,string,,,,grain,grain,ouvreuse,,,,,,,,,,,,
,investir,investir,fruit,fruit,flexi',flexi',influence,potassium,potassium,"classe préparatoire",loueur,,sud,podium,,,,primeur,primeur,revue,,,,,,,,,,,,
,croissance,croissance,légume,légume,flex',flex',ootd,supplément,supplément,prépa',sous-louer,,est,fringue,,,,low-,low-,musical,,,,,,,,,,,,
,stagnation,stagnation,cuit,cuit,libre,libre,"look book",oxygène,oxygène,khâgne,plancher,,ouest,caleçon,,,,dé-,dé-,"music hall",,,,,,,,,,,,
,finance,finance,cru,cru,indépendant,indépendant,grwm,repas,repas,hypokhâgne,mur,,gps,"soutien gorge",,,,alternatif,alternatif,tv,,,,,,,,,,,,
,business,business,fourchette,fourchette,fond,fond,haul,vert,vert,concours,mural,,carte,paréo,,,,juste,juste,épisode,,,,,,,,,,,,
,rentabilité,rentabilité,bouchée,bouchée,,,tuto,hydrater,hydrater,capes,chez,,boussole,cape,,,,,,pilote,,,,,,,,,,,,
,rentable,rentable,régal,régal,,,,hydra',hydra',aggrégation,"chez soi",,orientation,sarouel,,,,,,magique,,,,,,,,,,,,
,perte,perte,goût,goût,,,,tenseur,tenseur,aggrég',,,direction,mod',,,,,,animal,,,,,,,,,,,,
,gain,gain,gusto,gusto,,,,immunitaire,immunitaire,copain,,,chemin,in,,,,,,compagnie,,,,,,,,,,,,
,,,,,,,,docteur,docteur,,,,,intemporel,,,,,,animalerie,,,,,,,,,,,,
,,,,,,,,soigner,soigner,,,,,classique,,,,,,chien,,,,,,,,,,,,
,,,,,,,,guérir,guérir,,,,,collection,,,,,,chat,,,,,,,,,,,,
,,,,,,,,tonus,tonus,,,,,,,,,,,"poisson rouge",,,,,,,,,,,,
,,,,,,,,,,,,,,,,,,,,pâtée,,,,,,,,,,,,
,,,,,,,,,,,,,,,,,,,,croquette,,,,,,,,,,,,
,,,,,,,,,,,,,,,,,,,,hamster,,,,,,,,,,,,
,,,,,,,,,,,,,,,,,,,,oiseau,,,,,,,,,,,,
,,,,,,,,,,,,,,,,,,,,lapin,,,,,,,,,,,,
,,,,,,,,,,,,,,,,,,,,chiot,,,,,,,,,,,,
,,,,,,,,,,,,,,,,,,,,chaton,,,,,,,,,,,,
,,,,,,,,,,,,,,,,,,,,gamelle,,,,,,,,,,,,
,,,,,,,,,,,,,,,,,,,,affection,,,,,,,,,,,,
,,,,,,,,,,,,,,,,,,,,amour,,,,,,,,,,,,
,,,,,,,,,,,,,,,,,,,,vétérinaire,,,,,,,,,,,,
,,,,,,,,,,,,,,,,,,,,véto,,,,,,,,,,,,
,,,,,,,,,,,,,,,,,,,,douceur,,,,,,,,,,,,
,,,,,,,,,,,,,,,,,,,,poil,,,,,,,,,,,,
,,,,,,,,,,,,,,,,,,,,fourrure,,,,,,,,,,,,
,,,,,,,,,,,,,,,,,,,,écaille,,,,,,,,,,,,
,,,,,,,,,,,,,,,,,,,,moustache,,,,,,,,,,,,
,,,,,,,,,,,,,,,,,,,,museau,,,,,,,,,,,,
,,,,,,,,,,,,,,,,,,,,queue,,,,,,,,,,,,
,,,,,,,,,,,,,,,,,,,,patte,,,,,,,,,,,,
,,,,,,,,,,,,,,,,,,,,canin,,,,,,,,,,,,
,,,,,,,,,,,,,,,,,,,,félin,,,,,,,,,,,,
,,,,,,,,,,,,,,,,,,,,laisse,,,,,,,,,,,,
,,,,,,,,,,,,,,,,,,,,collier,,,,,,,,,,,,
,,,,,,,,,,,,,,,,,,,,os,,,,,,,,,,,,
,,,,,,,,,,,,,,,,,,,,niche,,,,,,,,,,,,
,,,,,,,,,,,,,,,,,,,,panier,,,,,,,,,,,,
,,,,,,,,,,,,,,,,,,,,compagnon,,,,,,,,,,,,
,,,,,,,,,,,,,,,,,,,,nid,,,,,,,,,,,,
,,,,,,,,,,,,,,,,,,,,douillet,,,,,,,,,,,,
,,,,,,,,,,,,,,,,,,,,câlin,,,,,,,,,,,,
,,,,,,,,,,,,,,,,,,,,adopter,,,,,,,,,,,,
,,,,,,,,,,,,,,,,,,,,adoption,,,,,,,,,,,,
,,,,,,,,,,,,,,,,,,,,promenade,,,,,,,,,,,,
,,,,,,,,,,,,,,,,,,,,sortir,,,,,,,,,,,,
,,,,,,,,,,,,,,,,,,,,promener,,,,,,,,,,,,
,,,,,,,,,,,,,,,,,,,,toutou,,,,,,,,,,,,
,,,,,,,,,,,,,,,,,,,,minou,,,,,,,,,,,,
,,,,,,,,,,,,,,,,,,,,bestiole,,,,,,,,,,,,
,,,,,,,,,,,,,,,,,,,,waouf,,,,,,,,,,,,
,,,,,,,,,,,,,,,,,,,,miaou,,,,,,,,,,,,
,,,,,,,,,,,,,,,,,,,,litière,,,,,,,,,,,,
,,,,,,,,,,,,,,,,,,,,aboyer,,,,,,,,,,,,
,,,,,,,,,,,,,,,,,,,,miauler,,,,,,,,,,,,
,,,,,,,,,,,,,,,,,,,,cage,,,,,,,,,,,,
,,,,,,,,,,,,,,,,,,,,souris,,,,,,,,,,,,
,,,,,,,,,,,,,,,,,,,,rongeur,,,,,,,,,,,,
,,,,,,,,,,,,,,,,,,,,rat,,,,,,,,,,,,
,,,,,,,,,,,,,,,,,,,,nac,,,,,,,,,,,,
,,,,,,,,,,,,,,,,,,,,chenil,,,,,,,,,,,,
,,,,,,,,,,,,,,,,,,,,refuge,,,,,,,,,,,,
,,,,,,,,,,,,,,,,,,,,toiletteur,,,,,,,,,,,,
,,,,,,,,,,,,,,,,,,,,doux,,,,,,,,,,,,
,,,,,,,,,,,,,,,,,,,,soyeux,,,,,,,,,,,,
,,,,,,,,,,,,,,,,,,,,tendre,,,,,,,,,,,,
,,,,,,,,,,,,,,,,,,,,soyeuse,,,,,,,,,,,,
,,,,,,,,,,,,,,,,,,,,douce,,,,,,,,,,,,
,,,,,,,,,,,,,,,,,,,,crotte,,,,,,,,,,,,
,,,,,,,,,,,,,,,,,,,,caca,,,,,,,,,,,,
,,,,,,,,,,,,,,,,,,,,responsabilité,,,,,,,,,,,,
,,,,,,,,,,,,,,,,,,,,mignon,,,,,,,,,,,,
,,,,,,,,,,,,,,,,,,,,adorable,,,,,,,,,,,,
,,,,,,,,,,,,,,,,,,,,cute,,,,,,,,,,,,
,,,,,,,,,,,,,,,,,,,,ami,,,,,,,,,,,,
,,,,,,,,,,,,,,,,,,,,caniche,,,,,,,,,,,,
,,,,,,,,,,,,,,,,,,,,labrador,,,,,,,,,,,,
,,,,,,,,,,,,,,,,,,,,labra-,,,,,,,,,,,,
,,,,,,,,,,,,,,,,,,,,terrier,,,,,,,,,,,,
,,,,,,,,,,,,,,,,,,,,dalmatien,,,,,,,,,,,,
,,,,,,,,,,,,,,,,,,,,chihuahua,,,,,,,,,,,,
,,,,,,,,,,,,,,,,,,,,saint-bernard,,,,,,,,,,,,
,,,,,,,,,,,,,,,,,,,,race,,,,,,,,,,,,
,,,,,,,,,,,,,,,,,,,,espèce,,,,,,,,,,,,
,,,,,,,,,,,,,,,,,,,,clébard,,,,,,,,,,,,
,,,,,,,,,,,,,,,,,,,,clebs,,,,,,,,,,,,
,,,,,,,,,,,,,,,,,,,,matou,,,,,,,,,,,,
,,,,,,,,,,,,,,,,,,,,assis,,,,,,,,,,,,
,,,,,,,,,,,,,,,,,,,,couché,,,,,,,,,,,,
,,,,,,,,,,,,,,,,,,,,rapporte,,,,,,,,,,,,
,,,,,,,,,,,,,,,,,,,,"va chercher",,,,,,,,,,,,
,,,,,,,,,,,,,,,,,,,,"fais le beau",,,,,,,,,,,,
,,,,,,,,,,,,,,,,,,,,gentil,,,,,,,,,,,,
,,,,,,,,,,,,,,,,,,,,dog,,,,,,,,,,,,
,,,,,,,,,,,,,,,,,,,,doggy,,,,,,,,,,,,
,,,,,,,,,,,,,,,,,,,,pug,,,,,,,,,,,,
,,,,,,,,,,,,,,,,,,,,baballe,,,,,,,,,,,,
,,,,,,,,,,,,,,,,,,,,siamois,,,,,,,,,,,,
,,,,,,,,,,,,,,,,,,,,"maine coon",,,,,,,,,,,,
,,,,,,,,,,,,,,,,,,,,persan,,,,,,,,,,,,
,,,,,,,,,,,,,,,,,,,,écuelle,,,,,,,,,,,,
,,,,,,,,,,,,,,,,,,,,jouet,,,,,,,,,,,,
,,,,,,,,,,,,,,,,,,,,furry,,,,,,,,,,,,
,,,,,,,,,,,,,,,,,,,,créature,,,,,,,,,,,,
,,,,,,,,,,,,,,,,,,,,furet,,,,,,,,,,,,
,,,,,,,,,,,,,,,,,,,,"cochon d'inde",,,,,,,,,,,,
,,,,,,,,,,,,,,,,,,,,tortue,,,,,,,,,,,,
,,,,,,,,,,,,,,,,,,,,maître,,,,,,,,,,,,
,,,,,,,,,,,,,,,,,,,,soin,,,,,,,,,,,,
,,,,,,,,,,,,,,,,,,,,animalier,,,,,,,,,,,,
